[
    {
        "path": "tonemap.comp.slang",
        "outputPath": "tonemap_msaa.comp.spv",
        "defines": ["MSAA"]
    },
    {
        "path": "tonemap.comp.slang"
    },
    {
        "path": "tonemap.comp.slang",
        "outputPath": "tonemap_multivp.comp.spv",
        "defines": ["MULTIVP"]
    },
    {
        "path": "tonemap.comp.slang",
        "outputPath": "tonemap_msaa_multivp.comp.spv",
        "defines": ["MSAA", "MULTIVP"]
    },
    {
        "path": "vr_hidden.vert.slang"
    },
    {
        "path": "light_cull.comp.slang"
    },
    {
        "path": "light_cull.comp.slang",
        "outputPath": "light_cull_multivp.comp.spv",
        "defines": ["MULTIVP"]
    },
    {
        "path": "light_cull.comp.slang",
        "outputPath": "light_cull_msaa.comp.spv",
        "defines": ["MSAA"]
    },
    {
        "path": "light_cull.comp.slang",
        "outputPath": "light_cull_msaa_multivp.comp.spv",
        "defines": ["MSAA", "MULTIVP"]
    },
    {
        "path": "light_cull.comp.slang"
    },
    {
        "path": "fake_lit.slang",
        "outputPath": "fake_lit.vert.spv",
        "stage": "vert",
        "entryPoint": "VertexShader"
    },
    {
        "path": "fake_lit.slang",
        "outputPath": "fake_lit.frag.spv",
        "stage": "frag",
        "entryPoint": "FragmentShader"
    },
    {
        "path": "standard.slang",
        "outputPath": "standard.vert.spv",
        "stage": "vert",
        "entryPoint": "VertexShader"
    },
    {
        "path": "standard.slang",
        "outputPath": "standard.frag.spv",
        "stage": "frag",
        "entryPoint": "FragmentShader"
    },
    {
        "path": "standard.slang",
        "outputPath": "standard_empty.frag.spv",
        "stage": "frag",
        "entryPoint": "EmptyFragShader"
    },
    {
        "path": "standard.slang",
        "outputPath": "standard_alpha_test.frag.spv",
        "stage": "frag",
        "entryPoint": "AlphaTestOnlyFragShader"
    },
    {
        "path": "cubemap_convolute.comp.slang"
    },
    {
        "path": "debug_line.slang",
        "outputPath": "debug_line.vert.spv",
        "stage": "vert",
        "entryPoint": "VertexShader"
    },
    {
        "path": "debug_line.slang",
        "outputPath": "debug_line.frag.spv",
        "stage": "frag",
        "entryPoint": "FragmentShader"
    },
    {
        "path": "bloom.comp.slang",
        "outputPath": "bloom_downsample.comp.spv"
    },
    {
        "path": "bloom.comp.slang",
        "outputPath": "bloom_downsample_multivp.comp.spv",
        "defines": ["MULTIVP"]
    },
    {
        "path": "bloom.comp.slang",
        "outputPath": "bloom_upsample.comp.spv",
        "defines": ["UPSAMPLE"]
    },
    {
        "path": "bloom.comp.slang",
        "outputPath": "bloom_upsample_multivp.comp.spv",
        "defines": ["UPSAMPLE", "MULTIVP"]
    },
    {
        "path": "bloom_seed.comp.slang"
    },
    {
        "path": "bloom_seed.comp.slang",
        "outputPath": "bloom_seed_msaa.comp.spv",
        "defines": ["MSAA"]
    },
    {
        "path": "bloom_seed.comp.slang",
        "outputPath": "bloom_seed_msaa_multivp.comp.spv",
        "defines": ["MSAA", "MULTIVP"]
    },
    {
        "path": "skybox.slang",
        "outputPath": "skybox.vert.spv",
        "stage": "vert",
        "entryPoint": "VertexShader"
    },
    {
        "path": "skybox.slang",
        "outputPath": "skybox.frag.spv",
        "stage": "frag",
        "entryPoint": "FragmentShader"
    },
    {
        "path": "shadowmap.vert.slang"
    },
    {
        "path": "blank.frag.slang"
    },
    {
        "path": "skinning.comp.slang"
    },
    {
        "path": "pick.slang",
        "outputPath": "pick.vert.spv",
        "stage": "vert",
        "entryPoint": "VertexShader"
    },
    {
        "path": "pick.slang",
        "outputPath": "pick.frag.spv",
        "stage": "frag",
        "entryPoint": "FragmentShader"
    },
    {
        "path": "particle_sim.comp.slang"
    },
    {
        "path": "particle_spawn_compact.comp.slang"
    },
    {
        "path": "particle_render.slang",
        "outputPath": "particle.vert.spv",
        "stage": "vert",
        "entryPoint": "VertexShader"
    },
    {
        "path": "particle_render.slang",
        "outputPath": "particle.frag.spv",
        "stage": "frag",
        "entryPoint": "FragmentShader"
    },
    {
        "path": "gunk.vert.slang",
        "outputPath": "gunk.vert.spv",
        "stage": "vert",
        "entryPoint": "VertexShader"
    },
    {
        "path": "hologram.frag.slang",
        "outputPath": "hologram.frag.spv",
        "stage": "frag",
        "entryPoint": "FragmentShader"
    },
    {
        "path": "glass.frag.slang",
        "outputPath": "glass.frag.spv",
        "stage": "frag",
        "entryPoint": "FragmentShader"
    },
    {
        "path": "ui_panel.slang",
        "outputPath": "ui_panel.vert.spv",
        "stage": "vert",
        "entryPoint": "VertexShader"
    },
    {
        "path": "ui_panel.slang",
        "outputPath": "ui_panel.frag.spv",
        "stage": "frag",
        "entryPoint": "FragmentShader"
    },
    {
        "path": "quest_standard.slang",
        "outputPath": "quest_standard.vert.spv",
        "stage": "vert",
        "entryPoint": "VertexShader"
    },
    {
        "path": "quest_standard.slang",
        "outputPath": "quest_standard.frag.spv",
        "stage": "frag",
        "entryPoint": "FragmentShader"
    },
        {
        "path": "world_space_ui.slang",
        "outputPath": "world_space_ui.vert.spv",
        "stage": "vert",
        "entryPoint": "VertexShader"
    },
    {
        "path": "world_space_ui.slang",
        "outputPath": "world_space_ui.frag.spv",
        "stage": "frag",
        "entryPoint": "FragmentShader"
    }
]